Lab 6
…
Question 1: What specialties do we have?

We can use count() from dplyr to figure out how many different catagories do we have? Are these catagories related? overlapping? evenly distributed?

mt_samples %>%
  count(medical_specialty, sort = TRUE)

# A tibble: 40 × 2
   medical_specialty                 n
   <chr>                         <int>
 1 Surgery                        1103
 2 Consult - History and Phy.      516
 3 Cardiovascular / Pulmonary      372
 4 Orthopedic                      355
 5 Radiology                       273
 6 General Medicine                259
 7 Gastroenterology                230
 8 Neurology                       223
 9 SOAP / Chart / Progress Notes   166
10 Obstetrics / Gynecology         160
# ℹ 30 more rows
…
When analyzing bi-grams, “the patient” emerges as the top phrase, followed by “of the” and “in the.” However, these findings are somewhat limited due to the presence of stop words, which diminish the meaningfulness of the insights. In contrast, the most common tri-gram is “the patient was,” closely followed by “the patient is.” Overall, although the prevalence of stop words reduces the depth of insight, the consistent emphasis on “patient” signals a relevant theme in the medical data.

Question 5

Using the results you got from questions 4. Pick a word and count the words that appears after and before it.

# picking the word "surgery" and seeing what comes after it
mt_samples |>
  unnest_tokens(ngram, transcription, token = "ngrams", n = 2) |>
  separate(ngram, into = c("word1", "word2"), sep = " ") |>
  select(word1, word2) |>
  filter(word1 == "surgery") |>
  count(word2, sort = TRUE)

# A tibble: 256 × 2
   word2     n
   <chr> <int>
 1 the     170
 2 and     143
 3 in       93
 4 were     78
 5 for      76
 6 was      71
 7 she      68
 8 on       59
 9 with     48
10 he       43
# ℹ 246 more rows

# picking the word "surgery" and seeing what comes before it
mt_samples |>
  unnest_tokens(ngram, transcription, token = "ngrams", n = 2) |>
  separate(ngram, into = c("word1", "word2"), sep = " ") |>
  select(word1, word2) |>
  filter(word2 == "surgery") |>
  count(word1, sort = TRUE)

# A tibble: 214 × 2
   word1        n
   <chr>    <int>
 1 the        220
 2 for        202
 3 of         178
 4 bypass      93
 5 with        74
 6 to          67
 7 further     60
 8 cataract    37
 9 previous    32
10 back        30
# ℹ 204 more rows

When looking at the words that follow “surgery,” the most common occurrences include “the” (170 times), “and” (143 times), and “in” (93 times). Conversely, when considering the words that precede “surgery,” “the” leads with 220 occurrences, followed closely by “for” (202), “of” (178), “bypass” (93), and “with” (74).

Question 6

Which words are most used in each of the specialties. you can use group_by() and top_n() from dplyr to have the calculations be done within each specialty. Remember to remove stopwords. How about the most 5 used words?

mt_samples |>
  unnest_tokens(words, transcription, token = "words") |>
  anti_join(stop_words, by = c("words" = "word")) |>
  group_by(medical_specialty) |>
  count(words, sort = TRUE) |>
  top_n(5, n)

# A tibble: 209 × 3
# Groups:   medical_specialty [40]
   medical_specialty          words         n
   <chr>                      <chr>     <int>
 1 Surgery                    patient    4855
 2 Surgery                    left       3263
 3 Surgery                    procedure  3243
 4 Consult - History and Phy. patient    3046
 5 Consult - History and Phy. history    2820
 6 Surgery                    0          2094
 7 Surgery                    1          2038
 8 Orthopedic                 patient    1711
 9 Cardiovascular / Pulmonary left       1550
10 Cardiovascular / Pulmonary patient    1516
# ℹ 199 more rows
…
